{"train_size": 9000, "validation_size": 1000, "test_size": 0, "time_to_train_validate": 75, "validation_step_results": [{"val_loss": 2.1516480445861816, "val_acc": 0.19328425824642181, "epoch": 0}, {"val_loss": 2.090691328048706, "val_acc": 0.24128605425357819, "epoch": 1}, {"val_loss": 1.8831267356872559, "val_acc": 0.2967998683452606, "epoch": 2}, {"val_loss": 1.9702627658843994, "val_acc": 0.27854567766189575, "epoch": 3}, {"val_loss": 2.1593399047851562, "val_acc": 0.2455679178237915, "epoch": 4}], "test_result": {"val_loss": 2.224959373474121, "val_acc": 0.14699998497962952}}
{"train_size": 13500, "validation_size": 1500, "test_size": 0, "time_to_train_validate": 91, "validation_step_results": [{"val_loss": 2.216292381286621, "val_acc": 0.16437385976314545, "epoch": 0}, {"val_loss": 2.1139612197875977, "val_acc": 0.20915420353412628, "epoch": 1}, {"val_loss": 2.0055127143859863, "val_acc": 0.2606714069843292, "epoch": 2}, {"val_loss": 2.1709742546081543, "val_acc": 0.22619451582431793, "epoch": 3}, {"val_loss": 2.1595704555511475, "val_acc": 0.2473958283662796, "epoch": 4}], "test_result": {"val_loss": 2.015652656555176, "val_acc": 0.27859997749328613}}
{"train_size": 18000, "validation_size": 2000, "test_size": 0, "time_to_train_validate": 110, "validation_step_results": [{"val_loss": 2.0471436977386475, "val_acc": 0.23427733778953552, "epoch": 0}, {"val_loss": 1.8470394611358643, "val_acc": 0.31083983182907104, "epoch": 1}, {"val_loss": 1.8974266052246094, "val_acc": 0.3001953065395355, "epoch": 2}, {"val_loss": 1.7644708156585693, "val_acc": 0.36015623807907104, "epoch": 3}, {"val_loss": 1.6650607585906982, "val_acc": 0.39775389432907104, "epoch": 4}], "test_result": {"val_loss": 1.6114546060562134, "val_acc": 0.3994000256061554}}
{"train_size": 22500, "validation_size": 2500, "test_size": 0, "time_to_train_validate": 129, "validation_step_results": [{"val_loss": 2.169640302658081, "val_acc": 0.20409007370471954, "epoch": 0}, {"val_loss": 2.4881503582000732, "val_acc": 0.13908548653125763, "epoch": 1}, {"val_loss": 2.42535662651062, "val_acc": 0.1578354835510254, "epoch": 2}, {"val_loss": 1.995234727859497, "val_acc": 0.26431527733802795, "epoch": 3}, {"val_loss": 1.9905191659927368, "val_acc": 0.2674402594566345, "epoch": 4}], "test_result": {"val_loss": 1.9357703924179077, "val_acc": 0.24899999797344208}}
{"train_size": 27000, "validation_size": 3000, "test_size": 0, "time_to_train_validate": 149, "validation_step_results": [{"val_loss": 2.3091959953308105, "val_acc": 0.1555524617433548, "epoch": 0}, {"val_loss": 1.8151592016220093, "val_acc": 0.3325427770614624, "epoch": 1}, {"val_loss": 2.5644640922546387, "val_acc": 0.135788694024086, "epoch": 2}, {"val_loss": 2.233335494995117, "val_acc": 0.1936848908662796, "epoch": 3}, {"val_loss": 2.0517215728759766, "val_acc": 0.2606026828289032, "epoch": 4}], "test_result": {"val_loss": 1.9231172800064087, "val_acc": 0.2906000018119812}}
{"train_size": 31500, "validation_size": 3500, "test_size": 0, "time_to_train_validate": 169, "validation_step_results": [{"val_loss": 2.1697769165039062, "val_acc": 0.19188819825649261, "epoch": 0}, {"val_loss": 2.376351833343506, "val_acc": 0.12654729187488556, "epoch": 1}, {"val_loss": 1.8305151462554932, "val_acc": 0.323178768157959, "epoch": 2}, {"val_loss": 1.7380609512329102, "val_acc": 0.36482852697372437, "epoch": 3}, {"val_loss": 1.813047170639038, "val_acc": 0.33664771914482117, "epoch": 4}], "test_result": {"val_loss": 1.5472458600997925, "val_acc": 0.43140000104904175}}
{"train_size": 36000, "validation_size": 4000, "test_size": 0, "time_to_train_validate": 188, "validation_step_results": [{"val_loss": 2.639746904373169, "val_acc": 0.121826171875, "epoch": 0}, {"val_loss": 1.8104559183120728, "val_acc": 0.326904296875, "epoch": 1}, {"val_loss": 1.759722113609314, "val_acc": 0.35498046875, "epoch": 2}, {"val_loss": 1.6610095500946045, "val_acc": 0.4033203125, "epoch": 3}, {"val_loss": 1.6612887382507324, "val_acc": 0.392333984375, "epoch": 4}], "test_result": {"val_loss": 1.615179419517517, "val_acc": 0.4129999876022339}}
{"train_size": 40500, "validation_size": 4500, "test_size": 0, "time_to_train_validate": 203, "validation_step_results": [{"val_loss": 2.039487600326538, "val_acc": 0.22777777910232544, "epoch": 0}, {"val_loss": 2.1226603984832764, "val_acc": 0.23294271528720856, "epoch": 1}, {"val_loss": NaN, "val_acc": 0.12157118320465088, "epoch": 2}, {"val_loss": NaN, "val_acc": 0.10638020932674408, "epoch": 3}, {"val_loss": NaN, "val_acc": 0.10403645783662796, "epoch": 4}], "test_result": {"val_loss": NaN, "val_acc": 0.09860000759363174}}
{"train_size": 45000, "validation_size": 5000, "test_size": 0, "time_to_train_validate": 222, "validation_step_results": [{"val_loss": 1.7687278985977173, "val_acc": 0.33964842557907104, "epoch": 0}, {"val_loss": 1.829817771911621, "val_acc": 0.33515626192092896, "epoch": 1}, {"val_loss": NaN, "val_acc": 0.14199218153953552, "epoch": 2}, {"val_loss": NaN, "val_acc": 0.09628906100988388, "epoch": 3}, {"val_loss": NaN, "val_acc": 0.09628906100988388, "epoch": 4}], "test_result": {"val_loss": NaN, "val_acc": 0.10000000149011612}}
{"train_size": 45000, "validation_size": 5000, "test_size": 0, "time_to_train_validate": 226, "validation_step_results": [{"val_loss": 1.7856521606445312, "val_acc": 0.3414062559604645, "epoch": 0}, {"val_loss": 1.976383090019226, "val_acc": 0.296875, "epoch": 1}, {"val_loss": 1.667662501335144, "val_acc": 0.38554686307907104, "epoch": 2}, {"val_loss": 2.027804136276245, "val_acc": 0.26777344942092896, "epoch": 3}, {"val_loss": NaN, "val_acc": 0.13632813096046448, "epoch": 4}], "test_result": {"val_loss": NaN, "val_acc": 0.10000000149011612}}
