{"train_size": 9000, "validation_size": 1000, "test_size": 0, "time_to_train_validate": 86, "validation_step_results": [{"val_loss": 2.083061695098877, "val_acc": 0.20823317766189575, "epoch": 0}, {"val_loss": 1.9642395973205566, "val_acc": 0.26059195399284363, "epoch": 1}, {"val_loss": 2.0374746322631836, "val_acc": 0.2509765625, "epoch": 2}, {"val_loss": 1.8738012313842773, "val_acc": 0.3076171875, "epoch": 3}, {"val_loss": 1.692042589187622, "val_acc": 0.3705679178237915, "epoch": 4}], "test_result": {"val_loss": 1.9614105224609375, "val_acc": 0.2889999747276306}}
{"train_size": 9900, "validation_size": 1100, "test_size": 0, "time_to_train_validate": 78, "validation_step_results": [{"val_loss": 2.0950846672058105, "val_acc": 0.19983552396297455, "epoch": 0}, {"val_loss": 2.200144052505493, "val_acc": 0.20604898035526276, "epoch": 1}, {"val_loss": 1.9393421411514282, "val_acc": 0.3116319477558136, "epoch": 2}, {"val_loss": 1.9105631113052368, "val_acc": 0.29481908679008484, "epoch": 3}, {"val_loss": 1.7749826908111572, "val_acc": 0.3452576696872711, "epoch": 4}], "test_result": {"val_loss": 1.7852035760879517, "val_acc": 0.3230000138282776}}
{"train_size": 10800, "validation_size": 1200, "test_size": 0, "time_to_train_validate": 79, "validation_step_results": [{"val_loss": 2.0910491943359375, "val_acc": 0.19973957538604736, "epoch": 0}, {"val_loss": 2.306398391723633, "val_acc": 0.1575520783662796, "epoch": 1}, {"val_loss": 1.9342979192733765, "val_acc": 0.26484376192092896, "epoch": 2}, {"val_loss": 2.262749671936035, "val_acc": 0.19713541865348816, "epoch": 3}, {"val_loss": 2.3555715084075928, "val_acc": 0.21718749403953552, "epoch": 4}], "test_result": {"val_loss": 2.280749797821045, "val_acc": 0.13499999046325684}}
{"train_size": 11700, "validation_size": 1300, "test_size": 0, "time_to_train_validate": 84, "validation_step_results": [{"val_loss": 2.2616617679595947, "val_acc": 0.19687500596046448, "epoch": 0}, {"val_loss": 2.348503589630127, "val_acc": 0.20085225999355316, "epoch": 1}, {"val_loss": 1.8235127925872803, "val_acc": 0.3386363685131073, "epoch": 2}, {"val_loss": 1.6358457803726196, "val_acc": 0.3830966055393219, "epoch": 3}, {"val_loss": 1.8546454906463623, "val_acc": 0.3410511314868927, "epoch": 4}], "test_result": {"val_loss": 1.8395010232925415, "val_acc": 0.3219999670982361}}
{"train_size": 12600, "validation_size": 1400, "test_size": 0, "time_to_train_validate": 88, "validation_step_results": [{"val_loss": 2.254085063934326, "val_acc": 0.16832385957241058, "epoch": 0}, {"val_loss": 1.8617486953735352, "val_acc": 0.2962121069431305, "epoch": 1}, {"val_loss": 1.7700315713882446, "val_acc": 0.33494317531585693, "epoch": 2}, {"val_loss": 2.030377149581909, "val_acc": 0.29327651858329773, "epoch": 3}, {"val_loss": 2.0830352306365967, "val_acc": 0.2732481062412262, "epoch": 4}], "test_result": {"val_loss": 2.0663859844207764, "val_acc": 0.2529999911785126}}
{"train_size": 13500, "validation_size": 1500, "test_size": 0, "time_to_train_validate": 94, "validation_step_results": [{"val_loss": 2.3572773933410645, "val_acc": 0.15879754722118378, "epoch": 0}, {"val_loss": 2.228949546813965, "val_acc": 0.21277739107608795, "epoch": 1}, {"val_loss": 2.3518385887145996, "val_acc": 0.18260304629802704, "epoch": 2}, {"val_loss": 2.2913050651550293, "val_acc": 0.20717279613018036, "epoch": 3}, {"val_loss": 1.916311264038086, "val_acc": 0.32670968770980835, "epoch": 4}], "test_result": {"val_loss": 1.9643694162368774, "val_acc": 0.28600001335144043}}
{"train_size": 14400, "validation_size": 1600, "test_size": 0, "time_to_train_validate": 97, "validation_step_results": [{"val_loss": 2.133174180984497, "val_acc": 0.21514423191547394, "epoch": 0}, {"val_loss": 3.087839365005493, "val_acc": 0.1460336595773697, "epoch": 1}, {"val_loss": 2.019479274749756, "val_acc": 0.24939903616905212, "epoch": 2}, {"val_loss": 2.4215033054351807, "val_acc": 0.1640625, "epoch": 3}, {"val_loss": 1.8435026407241821, "val_acc": 0.3233173191547394, "epoch": 4}], "test_result": {"val_loss": 1.7522038221359253, "val_acc": 0.35600000619888306}}
{"train_size": 15300, "validation_size": 1700, "test_size": 0, "time_to_train_validate": 101, "validation_step_results": [{"val_loss": 2.4908230304718018, "val_acc": 0.1413690596818924, "epoch": 0}, {"val_loss": 2.4892799854278564, "val_acc": 0.1770213395357132, "epoch": 1}, {"val_loss": 3.0454933643341064, "val_acc": 0.1369047611951828, "epoch": 2}, {"val_loss": 2.049680709838867, "val_acc": 0.2674231231212616, "epoch": 3}, {"val_loss": 2.1042821407318115, "val_acc": 0.24063740670681, "epoch": 4}], "test_result": {"val_loss": 2.1225202083587646, "val_acc": 0.2549999952316284}}
{"train_size": 16200, "validation_size": 1800, "test_size": 0, "time_to_train_validate": 105, "validation_step_results": [{"val_loss": 2.205976963043213, "val_acc": 0.18802084028720856, "epoch": 0}, {"val_loss": 2.5406219959259033, "val_acc": 0.14374999701976776, "epoch": 1}, {"val_loss": 2.385972738265991, "val_acc": 0.1458333283662796, "epoch": 2}, {"val_loss": 1.9363460540771484, "val_acc": 0.30260416865348816, "epoch": 3}, {"val_loss": 2.257694721221924, "val_acc": 0.20468750596046448, "epoch": 4}], "test_result": {"val_loss": 3.3777565956115723, "val_acc": 0.09099999815225601}}
{"train_size": 17100, "validation_size": 1900, "test_size": 0, "time_to_train_validate": 109, "validation_step_results": [{"val_loss": 2.3294835090637207, "val_acc": 0.17991898953914642, "epoch": 0}, {"val_loss": 2.0504891872406006, "val_acc": 0.24990354478359222, "epoch": 1}, {"val_loss": 1.7867220640182495, "val_acc": 0.34471452236175537, "epoch": 2}, {"val_loss": 1.7445428371429443, "val_acc": 0.3575810194015503, "epoch": 3}, {"val_loss": 1.869836688041687, "val_acc": 0.338657408952713, "epoch": 4}], "test_result": {"val_loss": 1.7823946475982666, "val_acc": 0.3460000157356262}}
{"train_size": 18000, "validation_size": 2000, "test_size": 0, "time_to_train_validate": 113, "validation_step_results": [{"val_loss": 2.7487220764160156, "val_acc": 0.11142577975988388, "epoch": 0}, {"val_loss": 2.0818545818328857, "val_acc": 0.24482421576976776, "epoch": 1}, {"val_loss": 2.117072582244873, "val_acc": 0.22539062798023224, "epoch": 2}, {"val_loss": 1.8636257648468018, "val_acc": 0.30107420682907104, "epoch": 3}, {"val_loss": 2.0058984756469727, "val_acc": 0.3045898377895355, "epoch": 4}], "test_result": {"val_loss": 1.9460772275924683, "val_acc": 0.2939999997615814}}
{"train_size": 18900, "validation_size": 2100, "test_size": 0, "time_to_train_validate": 116, "validation_step_results": [{"val_loss": 2.4018771648406982, "val_acc": 0.17060238122940063, "epoch": 0}, {"val_loss": 2.2568883895874023, "val_acc": 0.20206448435783386, "epoch": 1}, {"val_loss": 1.8493903875350952, "val_acc": 0.3172723650932312, "epoch": 2}, {"val_loss": 1.9018135070800781, "val_acc": 0.29086539149284363, "epoch": 3}, {"val_loss": 1.7471846342086792, "val_acc": 0.3460124433040619, "epoch": 4}], "test_result": {"val_loss": 1.8309201002120972, "val_acc": 0.3050000071525574}}
{"train_size": 19800, "validation_size": 2200, "test_size": 0, "time_to_train_validate": 120, "validation_step_results": [{"val_loss": 2.172330617904663, "val_acc": 0.18807870149612427, "epoch": 0}, {"val_loss": 1.7689059972763062, "val_acc": 0.32060185074806213, "epoch": 1}, {"val_loss": 2.479968309402466, "val_acc": 0.17115160822868347, "epoch": 2}, {"val_loss": 1.8914037942886353, "val_acc": 0.3098958432674408, "epoch": 3}, {"val_loss": 1.7391278743743896, "val_acc": 0.37268519401550293, "epoch": 4}], "test_result": {"val_loss": 1.8848167657852173, "val_acc": 0.33799999952316284}}
{"train_size": 20700, "validation_size": 2300, "test_size": 0, "time_to_train_validate": 125, "validation_step_results": [{"val_loss": 2.3421497344970703, "val_acc": 0.18412578105926514, "epoch": 0}, {"val_loss": 1.84319007396698, "val_acc": 0.33525145053863525, "epoch": 1}, {"val_loss": 2.0606250762939453, "val_acc": 0.2640289068222046, "epoch": 2}, {"val_loss": 2.080148935317993, "val_acc": 0.2646729350090027, "epoch": 3}, {"val_loss": 1.5612049102783203, "val_acc": 0.4372760057449341, "epoch": 4}], "test_result": {"val_loss": 1.6369240283966064, "val_acc": 0.42399996519088745}}
{"train_size": 21600, "validation_size": 2400, "test_size": 0, "time_to_train_validate": 129, "validation_step_results": [{"val_loss": 2.1245675086975098, "val_acc": 0.2528782784938812, "epoch": 0}, {"val_loss": 1.8787076473236084, "val_acc": 0.31085526943206787, "epoch": 1}, {"val_loss": 2.219865560531616, "val_acc": 0.21655702590942383, "epoch": 2}, {"val_loss": 1.9988611936569214, "val_acc": 0.27809756994247437, "epoch": 3}, {"val_loss": 1.6816627979278564, "val_acc": 0.37184756994247437, "epoch": 4}], "test_result": {"val_loss": 1.554540991783142, "val_acc": 0.4240000247955322}}
{"train_size": 22500, "validation_size": 2500, "test_size": 0, "time_to_train_validate": 134, "validation_step_results": [{"val_loss": 2.2670979499816895, "val_acc": 0.17136947810649872, "epoch": 0}, {"val_loss": 2.364825963973999, "val_acc": 0.16509650647640228, "epoch": 1}, {"val_loss": 1.6908191442489624, "val_acc": 0.3762867748737335, "epoch": 2}, {"val_loss": 5.000424385070801, "val_acc": 0.1768382340669632, "epoch": 3}, {"val_loss": 2.350456714630127, "val_acc": 0.16215533018112183, "epoch": 4}], "test_result": {"val_loss": 2.1900417804718018, "val_acc": 0.22800001502037048}}
{"train_size": 23400, "validation_size": 2600, "test_size": 0, "time_to_train_validate": 137, "validation_step_results": [{"val_loss": 2.1305012702941895, "val_acc": 0.2224702388048172, "epoch": 0}, {"val_loss": 1.869969367980957, "val_acc": 0.3281994163990021, "epoch": 1}, {"val_loss": 1.8277775049209595, "val_acc": 0.3314732015132904, "epoch": 2}, {"val_loss": 1.646870732307434, "val_acc": 0.41309523582458496, "epoch": 3}, {"val_loss": NaN, "val_acc": 0.18653273582458496, "epoch": 4}], "test_result": {"val_loss": NaN, "val_acc": 0.08699999749660492}}
{"train_size": 24300, "validation_size": 2700, "test_size": 0, "time_to_train_validate": 141, "validation_step_results": [{"val_loss": 2.085453987121582, "val_acc": 0.24183239042758942, "epoch": 0}, {"val_loss": 2.067187547683716, "val_acc": 0.2508285939693451, "epoch": 1}, {"val_loss": 1.7592664957046509, "val_acc": 0.359375, "epoch": 2}, {"val_loss": 2.3853206634521484, "val_acc": 0.19389204680919647, "epoch": 3}, {"val_loss": 1.7126246690750122, "val_acc": 0.37866953015327454, "epoch": 4}], "test_result": {"val_loss": 1.7511577606201172, "val_acc": 0.3229999840259552}}
{"train_size": 25200, "validation_size": 2800, "test_size": 0, "time_to_train_validate": 146, "validation_step_results": [{"val_loss": 2.211423397064209, "val_acc": 0.2025669664144516, "epoch": 0}, {"val_loss": 2.1673569679260254, "val_acc": 0.2253449559211731, "epoch": 1}, {"val_loss": 2.247474193572998, "val_acc": 0.18942776322364807, "epoch": 2}, {"val_loss": 1.9283881187438965, "val_acc": 0.27998173236846924, "epoch": 3}, {"val_loss": 2.010965585708618, "val_acc": 0.2761262059211731, "epoch": 4}], "test_result": {"val_loss": 1.8526188135147095, "val_acc": 0.31699997186660767}}
{"train_size": 26100, "validation_size": 2900, "test_size": 0, "time_to_train_validate": 147, "validation_step_results": [{"val_loss": 2.3655059337615967, "val_acc": 0.12519408762454987, "epoch": 0}, {"val_loss": 2.1036593914031982, "val_acc": 0.22690217196941376, "epoch": 1}, {"val_loss": 2.3525450229644775, "val_acc": 0.1714382767677307, "epoch": 2}, {"val_loss": 1.7213306427001953, "val_acc": 0.3703092634677887, "epoch": 3}, {"val_loss": 2.666973352432251, "val_acc": 0.16944876313209534, "epoch": 4}], "test_result": {"val_loss": 2.4192416667938232, "val_acc": 0.1080000177025795}}
{"train_size": 27000, "validation_size": 3000, "test_size": 0, "time_to_train_validate": 152, "validation_step_results": [{"val_loss": 2.170454978942871, "val_acc": 0.2127046138048172, "epoch": 0}, {"val_loss": 2.022223949432373, "val_acc": 0.2558128833770752, "epoch": 1}, {"val_loss": 1.6722748279571533, "val_acc": 0.3897414207458496, "epoch": 2}, {"val_loss": 3.6489601135253906, "val_acc": 0.1804780513048172, "epoch": 3}, {"val_loss": 2.790168285369873, "val_acc": 0.112816222012043, "epoch": 4}], "test_result": {"val_loss": 2.2922656536102295, "val_acc": 0.12799999117851257}}
{"train_size": 27900, "validation_size": 3100, "test_size": 0, "time_to_train_validate": 157, "validation_step_results": [{"val_loss": 2.0760552883148193, "val_acc": 0.24214287102222443, "epoch": 0}, {"val_loss": 1.898190975189209, "val_acc": 0.3005357086658478, "epoch": 1}, {"val_loss": 2.0999069213867188, "val_acc": 0.2459374964237213, "epoch": 2}, {"val_loss": 1.5573498010635376, "val_acc": 0.42964285612106323, "epoch": 3}, {"val_loss": 1.4670625925064087, "val_acc": 0.4898214340209961, "epoch": 4}], "test_result": {"val_loss": 1.9118187427520752, "val_acc": 0.3889999985694885}}
{"train_size": 28800, "validation_size": 3200, "test_size": 0, "time_to_train_validate": 160, "validation_step_results": [{"val_loss": 2.0676586627960205, "val_acc": 0.23624999821186066, "epoch": 0}, {"val_loss": 2.1353137493133545, "val_acc": 0.22156250476837158, "epoch": 1}, {"val_loss": 2.1031384468078613, "val_acc": 0.24281249940395355, "epoch": 2}, {"val_loss": 2.310084104537964, "val_acc": 0.1809374988079071, "epoch": 3}, {"val_loss": 2.9276375770568848, "val_acc": 0.1418749988079071, "epoch": 4}], "test_result": {"val_loss": 2.4812164306640625, "val_acc": 0.11799999326467514}}
{"train_size": 29700, "validation_size": 3300, "test_size": 0, "time_to_train_validate": 165, "validation_step_results": [{"val_loss": 2.110003709793091, "val_acc": 0.2036057561635971, "epoch": 0}, {"val_loss": 2.427286148071289, "val_acc": 0.1459735482931137, "epoch": 1}, {"val_loss": 1.8481051921844482, "val_acc": 0.30163460969924927, "epoch": 2}, {"val_loss": 1.925937533378601, "val_acc": 0.28908655047416687, "epoch": 3}, {"val_loss": 1.7483490705490112, "val_acc": 0.36240386962890625, "epoch": 4}], "test_result": {"val_loss": 1.6945695877075195, "val_acc": 0.3889999985694885}}
{"train_size": 30600, "validation_size": 3400, "test_size": 0, "time_to_train_validate": 167, "validation_step_results": [{"val_loss": 2.126556158065796, "val_acc": 0.20161393284797668, "epoch": 0}, {"val_loss": 2.3416659832000732, "val_acc": 0.1346772164106369, "epoch": 1}, {"val_loss": 2.3868467807769775, "val_acc": 0.13191229104995728, "epoch": 2}, {"val_loss": NaN, "val_acc": 0.10956791043281555, "epoch": 3}, {"val_loss": NaN, "val_acc": 0.09596837311983109, "epoch": 4}], "test_result": {"val_loss": NaN, "val_acc": 0.09300000220537186}}
{"train_size": 31500, "validation_size": 3500, "test_size": 0, "time_to_train_validate": 173, "validation_step_results": [{"val_loss": 1.9400430917739868, "val_acc": 0.2875913083553314, "epoch": 0}, {"val_loss": 1.7884465456008911, "val_acc": 0.3386262059211731, "epoch": 1}, {"val_loss": 1.722464919090271, "val_acc": 0.3653865456581116, "epoch": 2}, {"val_loss": 1.8045170307159424, "val_acc": 0.3391588628292084, "epoch": 3}, {"val_loss": 1.7318922281265259, "val_acc": 0.37839895486831665, "epoch": 4}], "test_result": {"val_loss": 1.57420814037323, "val_acc": 0.44600000977516174}}
{"train_size": 32400, "validation_size": 3600, "test_size": 0, "time_to_train_validate": 176, "validation_step_results": [{"val_loss": 2.3094029426574707, "val_acc": 0.15678879618644714, "epoch": 0}, {"val_loss": 1.8295414447784424, "val_acc": 0.33459052443504333, "epoch": 1}, {"val_loss": 2.13852596282959, "val_acc": 0.2295258641242981, "epoch": 2}, {"val_loss": 2.270930051803589, "val_acc": 0.19396552443504333, "epoch": 3}, {"val_loss": NaN, "val_acc": 0.13119612634181976, "epoch": 4}], "test_result": {"val_loss": NaN, "val_acc": 0.09600000083446503}}
{"train_size": 33300, "validation_size": 3700, "test_size": 0, "time_to_train_validate": 178, "validation_step_results": [{"val_loss": 1.9630789756774902, "val_acc": 0.2571343779563904, "epoch": 0}, {"val_loss": 2.110074520111084, "val_acc": 0.26356273889541626, "epoch": 1}, {"val_loss": 2.1614558696746826, "val_acc": 0.21826694905757904, "epoch": 2}, {"val_loss": NaN, "val_acc": 0.16224175691604614, "epoch": 3}, {"val_loss": NaN, "val_acc": 0.10097725689411163, "epoch": 4}], "test_result": {"val_loss": NaN, "val_acc": 0.10699999332427979}}
{"train_size": 34200, "validation_size": 3800, "test_size": 0, "time_to_train_validate": 186, "validation_step_results": [{"val_loss": 2.0440735816955566, "val_acc": 0.24306344985961914, "epoch": 0}, {"val_loss": 2.1920905113220215, "val_acc": 0.2047111839056015, "epoch": 1}, {"val_loss": 1.705288290977478, "val_acc": 0.3803267180919647, "epoch": 2}, {"val_loss": 2.0288755893707275, "val_acc": 0.26202651858329773, "epoch": 3}, {"val_loss": 2.489415407180786, "val_acc": 0.16562500596046448, "epoch": 4}], "test_result": {"val_loss": 2.2641286849975586, "val_acc": 0.15199999511241913}}
{"train_size": 35100, "validation_size": 3900, "test_size": 0, "time_to_train_validate": 190, "validation_step_results": [{"val_loss": 2.070641040802002, "val_acc": 0.2278897911310196, "epoch": 0}, {"val_loss": 2.2359585762023926, "val_acc": 0.18219086527824402, "epoch": 1}, {"val_loss": 2.1543195247650146, "val_acc": 0.21376007795333862, "epoch": 2}, {"val_loss": 1.951367735862732, "val_acc": 0.29848790168762207, "epoch": 3}, {"val_loss": 2.0194785594940186, "val_acc": 0.2753192186355591, "epoch": 4}], "test_result": {"val_loss": 2.0539116859436035, "val_acc": 0.21199998259544373}}
{"train_size": 36000, "validation_size": 4000, "test_size": 0, "time_to_train_validate": 193, "validation_step_results": [{"val_loss": 2.1011199951171875, "val_acc": 0.2255859375, "epoch": 0}, {"val_loss": 2.178772449493408, "val_acc": 0.21142578125, "epoch": 1}, {"val_loss": 2.0409669876098633, "val_acc": 0.26220703125, "epoch": 2}, {"val_loss": 1.6137343645095825, "val_acc": 0.419921875, "epoch": 3}, {"val_loss": 2.062838554382324, "val_acc": 0.255126953125, "epoch": 4}], "test_result": {"val_loss": 2.0471351146698, "val_acc": 0.2750000059604645}}
{"train_size": 36900, "validation_size": 4100, "test_size": 0, "time_to_train_validate": 195, "validation_step_results": [{"val_loss": 2.1665775775909424, "val_acc": 0.1879734843969345, "epoch": 0}, {"val_loss": 1.876993179321289, "val_acc": 0.3203125, "epoch": 1}, {"val_loss": 1.9770750999450684, "val_acc": 0.2869318127632141, "epoch": 2}, {"val_loss": NaN, "val_acc": 0.15340909361839294, "epoch": 3}, {"val_loss": NaN, "val_acc": 0.10203598439693451, "epoch": 4}], "test_result": {"val_loss": NaN, "val_acc": 0.09800000488758087}}
{"train_size": 37800, "validation_size": 4200, "test_size": 0, "time_to_train_validate": 195, "validation_step_results": [{"val_loss": 2.0990688800811768, "val_acc": 0.24424535036087036, "epoch": 0}, {"val_loss": 1.786199927330017, "val_acc": 0.34595349431037903, "epoch": 1}, {"val_loss": NaN, "val_acc": 0.1386946439743042, "epoch": 2}, {"val_loss": NaN, "val_acc": 0.10440340638160706, "epoch": 3}, {"val_loss": NaN, "val_acc": 0.10423950850963593, "epoch": 4}], "test_result": {"val_loss": NaN, "val_acc": 0.10300000756978989}}
{"train_size": 38700, "validation_size": 4300, "test_size": 0, "time_to_train_validate": 200, "validation_step_results": [{"val_loss": 1.95352041721344, "val_acc": 0.2771260738372803, "epoch": 0}, {"val_loss": 2.3126773834228516, "val_acc": 0.17439047992229462, "epoch": 1}, {"val_loss": 1.8221715688705444, "val_acc": 0.3543682098388672, "epoch": 2}, {"val_loss": 2.3011693954467773, "val_acc": 0.1638568937778473, "epoch": 3}, {"val_loss": 2.065594434738159, "val_acc": 0.2497943937778473, "epoch": 4}], "test_result": {"val_loss": 1.8762270212173462, "val_acc": 0.29499998688697815}}
{"train_size": 39600, "validation_size": 4400, "test_size": 0, "time_to_train_validate": 205, "validation_step_results": [{"val_loss": 1.9209157228469849, "val_acc": 0.29665178060531616, "epoch": 0}, {"val_loss": 1.8170239925384521, "val_acc": 0.32447919249534607, "epoch": 1}, {"val_loss": 2.2060463428497314, "val_acc": 0.23601189255714417, "epoch": 2}, {"val_loss": 2.2540972232818604, "val_acc": 0.15505953133106232, "epoch": 3}, {"val_loss": NaN, "val_acc": 0.13526785373687744, "epoch": 4}], "test_result": {"val_loss": NaN, "val_acc": 0.11600001156330109}}
{"train_size": 40500, "validation_size": 4500, "test_size": 0, "time_to_train_validate": 209, "validation_step_results": [{"val_loss": 1.8246917724609375, "val_acc": 0.31779515743255615, "epoch": 0}, {"val_loss": 2.08451771736145, "val_acc": 0.24205729365348816, "epoch": 1}, {"val_loss": NaN, "val_acc": 0.12191840261220932, "epoch": 2}, {"val_loss": NaN, "val_acc": 0.10403645783662796, "epoch": 3}, {"val_loss": NaN, "val_acc": 0.10520832985639572, "epoch": 4}], "test_result": {"val_loss": NaN, "val_acc": 0.08999999612569809}}
{"train_size": 41400, "validation_size": 4600, "test_size": 0, "time_to_train_validate": 215, "validation_step_results": [{"val_loss": 2.052093267440796, "val_acc": 0.24622395634651184, "epoch": 0}, {"val_loss": 2.019416570663452, "val_acc": 0.2749421298503876, "epoch": 1}, {"val_loss": 1.7573822736740112, "val_acc": 0.3583911955356598, "epoch": 2}, {"val_loss": 2.2844955921173096, "val_acc": 0.18444734811782837, "epoch": 3}, {"val_loss": NaN, "val_acc": 0.13550347089767456, "epoch": 4}], "test_result": {"val_loss": NaN, "val_acc": 0.0989999994635582}}
{"train_size": 42300, "validation_size": 4700, "test_size": 0, "time_to_train_validate": 214, "validation_step_results": [{"val_loss": 1.8642433881759644, "val_acc": 0.29483696818351746, "epoch": 0}, {"val_loss": 1.695532202720642, "val_acc": 0.3705107867717743, "epoch": 1}, {"val_loss": 1.5484025478363037, "val_acc": 0.42573994398117065, "epoch": 2}, {"val_loss": NaN, "val_acc": 0.12173178046941757, "epoch": 3}, {"val_loss": NaN, "val_acc": 0.10103921592235565, "epoch": 4}], "test_result": {"val_loss": NaN, "val_acc": 0.10700000822544098}}
{"train_size": 43200, "validation_size": 4800, "test_size": 0, "time_to_train_validate": 213, "validation_step_results": [{"val_loss": 1.8557988405227661, "val_acc": 0.3139391541481018, "epoch": 0}, {"val_loss": NaN, "val_acc": 0.11862664669752121, "epoch": 1}, {"val_loss": NaN, "val_acc": 0.10382401198148727, "epoch": 2}, {"val_loss": NaN, "val_acc": 0.10382401198148727, "epoch": 3}, {"val_loss": NaN, "val_acc": 0.10300164669752121, "epoch": 4}], "test_result": {"val_loss": NaN, "val_acc": 0.11000001430511475}}
{"train_size": 44100, "validation_size": 4900, "test_size": 0, "time_to_train_validate": 223, "validation_step_results": [{"val_loss": 2.267212390899658, "val_acc": 0.16228187084197998, "epoch": 0}, {"val_loss": 2.1739730834960938, "val_acc": 0.19460025429725647, "epoch": 1}, {"val_loss": 1.9819164276123047, "val_acc": 0.2711004316806793, "epoch": 2}, {"val_loss": NaN, "val_acc": 0.15351229906082153, "epoch": 3}, {"val_loss": NaN, "val_acc": 0.10512375086545944, "epoch": 4}], "test_result": {"val_loss": NaN, "val_acc": 0.08699999749660492}}
{"train_size": 45000, "validation_size": 5000, "test_size": 0, "time_to_train_validate": 227, "validation_step_results": [{"val_loss": 1.9092689752578735, "val_acc": 0.28691405057907104, "epoch": 0}, {"val_loss": NaN, "val_acc": 0.12617187201976776, "epoch": 1}, {"val_loss": NaN, "val_acc": 0.09921874850988388, "epoch": 2}, {"val_loss": NaN, "val_acc": 0.09921874850988388, "epoch": 3}, {"val_loss": NaN, "val_acc": 0.09628906100988388, "epoch": 4}], "test_result": {"val_loss": NaN, "val_acc": 0.10000000149011612}}
{"train_size": 45000, "validation_size": 5000, "test_size": 0, "time_to_train_validate": 226, "validation_step_results": [{"val_loss": 2.306615114212036, "val_acc": 0.17265625298023224, "epoch": 0}, {"val_loss": 1.843435287475586, "val_acc": 0.3154296875, "epoch": 1}, {"val_loss": NaN, "val_acc": 0.1298828125, "epoch": 2}, {"val_loss": NaN, "val_acc": 0.09628906100988388, "epoch": 3}, {"val_loss": NaN, "val_acc": 0.09628906100988388, "epoch": 4}], "test_result": {"val_loss": NaN, "val_acc": 0.10000000149011612}}
